Library\Bee\artifacts\mvdfrm\UnityEditor.TestRunner.ref.dll_028A7A6FF5241435.mvfrm
Library\Bee\artifacts\mvdfrm\UnityEngine.TestRunner.ref.dll_CEA8C51E20E77220.mvfrm
Library\Bee\artifacts\mvdfrm\UnityEngine.UI.ref.dll_BDE653AA950E90E2.mvfrm
Library\Bee\artifacts\mvdfrm\Unity.Burst.Cecil.dll_DFC190B25D957D05.mvfrm
Library\Bee\artifacts\mvdfrm\Unity.Burst.Cecil.Mdb.dll_24043BE5E6275982.mvfrm
Library\Bee\artifacts\mvdfrm\Unity.Burst.Cecil.Pdb.dll_3B56B45564DC5B05.mvfrm
Library\Bee\artifacts\mvdfrm\Unity.Burst.Cecil.Rocks.dll_30375A73BC4B9DC5.mvfrm
Library\Bee\artifacts\mvdfrm\Unity.Burst.Unsafe.dll_7642C8303C5860FE.mvfrm
Library\Bee\artifacts\mvdfrm\Unity.Plastic.Antlr3.Runtime.dll_5BCD2E7690D015D5.mvfrm
Library\Bee\artifacts\mvdfrm\Unity.Plastic.Newtonsoft.Json.dll_0B6730AAAB717B90.mvfrm
Library\Bee\artifacts\mvdfrm\UnityEditor.Graphs.dll_1F8B3AACCE90A58B.mvfrm
Library\Bee\artifacts\mvdfrm\UnityEditor.CoreModule.dll_25A8815529E5B459.mvfrm
Library\Bee\artifacts\mvdfrm\UnityEditor.DeviceSimulatorModule.dll_018A5EAB1779D7B8.mvfrm
Library\Bee\artifacts\mvdfrm\UnityEditor.DiagnosticsModule.dll_052D9440F4F95C06.mvfrm
Library\Bee\artifacts\mvdfrm\UnityEditor.dll_2FA8DFB633D665EC.mvfrm
Library\Bee\artifacts\mvdfrm\UnityEditor.GraphViewModule.dll_BD93756C3EBC3B1D.mvfrm
Library\Bee\artifacts\mvdfrm\UnityEditor.PackageManagerUIModule.dll_339BA8AC703EFC75.mvfrm
Library\Bee\artifacts\mvdfrm\UnityEditor.QuickSearchModule.dll_903D154E4DD0585F.mvfrm
Library\Bee\artifacts\mvdfrm\UnityEditor.SceneTemplateModule.dll_1B7656906E90E8C0.mvfrm
Library\Bee\artifacts\mvdfrm\UnityEditor.TextCoreFontEngineModule.dll_750B3EFF5E28EDB7.mvfrm
Library\Bee\artifacts\mvdfrm\UnityEditor.TextCoreTextEngineModule.dll_BCF37570EDACA6D5.mvfrm
Library\Bee\artifacts\mvdfrm\UnityEditor.UIBuilderModule.dll_121C2288B174B451.mvfrm
Library\Bee\artifacts\mvdfrm\UnityEditor.UIElementsModule.dll_98D8A1EC2BCC0EF5.mvfrm
Library\Bee\artifacts\mvdfrm\UnityEditor.UIElementsSamplesModule.dll_BFDC05E61FA698C8.mvfrm
Library\Bee\artifacts\mvdfrm\UnityEditor.UIServiceModule.dll_4B0E33EB9AAC046B.mvfrm
Library\Bee\artifacts\mvdfrm\UnityEditor.UnityConnectModule.dll_36216D0136538F8F.mvfrm
Library\Bee\artifacts\mvdfrm\UnityEngine.AccessibilityModule.dll_4E1BC2276F07105D.mvfrm
Library\Bee\artifacts\mvdfrm\UnityEngine.AIModule.dll_D4C35B7CA958F18D.mvfrm
Library\Bee\artifacts\mvdfrm\UnityEngine.AndroidJNIModule.dll_17218ABF74EB7DCB.mvfrm
Library\Bee\artifacts\mvdfrm\UnityEngine.AnimationModule.dll_8C18F19519190FC3.mvfrm
Library\Bee\artifacts\mvdfrm\UnityEngine.ARModule.dll_8E36208006765056.mvfrm
Library\Bee\artifacts\mvdfrm\UnityEngine.AssetBundleModule.dll_D426483FB0370D51.mvfrm
Library\Bee\artifacts\mvdfrm\UnityEngine.AudioModule.dll_C7F5613EB5B047F5.mvfrm
Library\Bee\artifacts\mvdfrm\UnityEngine.ClothModule.dll_2EDDBE398FCD26D9.mvfrm
Library\Bee\artifacts\mvdfrm\UnityEngine.ClusterInputModule.dll_B5BDE216E7DB6255.mvfrm
Library\Bee\artifacts\mvdfrm\UnityEngine.ClusterRendererModule.dll_0737211C8734E53C.mvfrm
Library\Bee\artifacts\mvdfrm\UnityEngine.CoreModule.dll_48C954A7D1EB1F84.mvfrm
Library\Bee\artifacts\mvdfrm\UnityEngine.CrashReportingModule.dll_45BFF1082E4A8D9C.mvfrm
Library\Bee\artifacts\mvdfrm\UnityEngine.DirectorModule.dll_98CCB1B2BE3F2EA1.mvfrm
Library\Bee\artifacts\mvdfrm\UnityEngine.dll_624D268E9249F2D1.mvfrm
Library\Bee\artifacts\mvdfrm\UnityEngine.DSPGraphModule.dll_9E1E131C309FFFC2.mvfrm
Library\Bee\artifacts\mvdfrm\UnityEngine.GameCenterModule.dll_416ED4DA3B2C6EBC.mvfrm
Library\Bee\artifacts\mvdfrm\UnityEngine.GIModule.dll_6CFFA48A4507D9A7.mvfrm
Library\Bee\artifacts\mvdfrm\UnityEngine.GridModule.dll_263A7095EA3FB57B.mvfrm
Library\Bee\artifacts\mvdfrm\UnityEngine.HotReloadModule.dll_0D61AF9AF44C2B45.mvfrm
Library\Bee\artifacts\mvdfrm\UnityEngine.ImageConversionModule.dll_73291ECD09599D30.mvfrm
Library\Bee\artifacts\mvdfrm\UnityEngine.IMGUIModule.dll_005500A57BE1DBD6.mvfrm
Library\Bee\artifacts\mvdfrm\UnityEngine.InputLegacyModule.dll_656B635E4828C342.mvfrm
Library\Bee\artifacts\mvdfrm\UnityEngine.InputModule.dll_2E6B28EF2BE86C99.mvfrm
Library\Bee\artifacts\mvdfrm\UnityEngine.JSONSerializeModule.dll_AE334B636E4270E7.mvfrm
Library\Bee\artifacts\mvdfrm\UnityEngine.LocalizationModule.dll_F40AAC697F57554E.mvfrm
Library\Bee\artifacts\mvdfrm\UnityEngine.NVIDIAModule.dll_5784BE5669C72C70.mvfrm
Library\Bee\artifacts\mvdfrm\UnityEngine.ParticleSystemModule.dll_98D23A549C5C192A.mvfrm
Library\Bee\artifacts\mvdfrm\UnityEngine.PerformanceReportingModule.dll_ED471950AAFB3843.mvfrm
Library\Bee\artifacts\mvdfrm\UnityEngine.Physics2DModule.dll_D8BEE185BA160758.mvfrm
Library\Bee\artifacts\mvdfrm\UnityEngine.PhysicsModule.dll_E9D16CAA2518B366.mvfrm
Library\Bee\artifacts\mvdfrm\UnityEngine.ProfilerModule.dll_CB12EAE95798B5AE.mvfrm
Library\Bee\artifacts\mvdfrm\UnityEngine.RuntimeInitializeOnLoadManagerInitializerModule.dll_FC82B0C9E61E2821.mvfrm
Library\Bee\artifacts\mvdfrm\UnityEngine.ScreenCaptureModule.dll_C81AF8E882AE9D49.mvfrm
Library\Bee\artifacts\mvdfrm\UnityEngine.SharedInternalsModule.dll_F73A5DA280879880.mvfrm
Library\Bee\artifacts\mvdfrm\UnityEngine.SpriteMaskModule.dll_2A9B476A5C9C0436.mvfrm
Library\Bee\artifacts\mvdfrm\UnityEngine.SpriteShapeModule.dll_ED87759A65D9455B.mvfrm
Library\Bee\artifacts\mvdfrm\UnityEngine.StreamingModule.dll_40ADDEE568A0C701.mvfrm
Library\Bee\artifacts\mvdfrm\UnityEngine.SubstanceModule.dll_1D58F32EB3F3C50F.mvfrm
Library\Bee\artifacts\mvdfrm\UnityEngine.SubsystemsModule.dll_9548ADCC2AE3EC49.mvfrm
Library\Bee\artifacts\mvdfrm\UnityEngine.TerrainModule.dll_0417E818FAD6FC54.mvfrm
Library\Bee\artifacts\mvdfrm\UnityEngine.TerrainPhysicsModule.dll_994CE327B59F13B7.mvfrm
Library\Bee\artifacts\mvdfrm\UnityEngine.TextCoreFontEngineModule.dll_F36ABA527126AC82.mvfrm
Library\Bee\artifacts\mvdfrm\UnityEngine.TextCoreTextEngineModule.dll_3B52F0C400AA65A0.mvfrm
Library\Bee\artifacts\mvdfrm\UnityEngine.TextRenderingModule.dll_F15A6AF339E61D3E.mvfrm
Library\Bee\artifacts\mvdfrm\UnityEngine.TilemapModule.dll_A3144F9A1293DD5D.mvfrm
Library\Bee\artifacts\mvdfrm\UnityEngine.TLSModule.dll_B8DE3299A836BABA.mvfrm
Library\Bee\artifacts\mvdfrm\UnityEngine.UIElementsModule.dll_99870F342E102840.mvfrm
Library\Bee\artifacts\mvdfrm\UnityEngine.UIElementsNativeModule.dll_7E155D41E1B76C97.mvfrm
Library\Bee\artifacts\mvdfrm\UnityEngine.UIModule.dll_D036F9AA059FF739.mvfrm
Library\Bee\artifacts\mvdfrm\UnityEngine.UmbraModule.dll_42CA0D5742D6F368.mvfrm
Library\Bee\artifacts\mvdfrm\UnityEngine.UNETModule.dll_DB6F9C911EFA14FD.mvfrm
Library\Bee\artifacts\mvdfrm\UnityEngine.UnityAnalyticsCommonModule.dll_8885D694C4E3D6A1.mvfrm
Library\Bee\artifacts\mvdfrm\UnityEngine.UnityAnalyticsModule.dll_B871AB1E48836B26.mvfrm
Library\Bee\artifacts\mvdfrm\UnityEngine.UnityConnectModule.dll_2380F11030DB903A.mvfrm
Library\Bee\artifacts\mvdfrm\UnityEngine.UnityCurlModule.dll_BF3592C6892D01B0.mvfrm
Library\Bee\artifacts\mvdfrm\UnityEngine.UnityTestProtocolModule.dll_7B9EBBD879A1EE1E.mvfrm
Library\Bee\artifacts\mvdfrm\UnityEngine.UnityWebRequestAssetBundleModule.dll_14A8EFD50E2C7A77.mvfrm
Library\Bee\artifacts\mvdfrm\UnityEngine.UnityWebRequestAudioModule.dll_65436D2F316602DB.mvfrm
Library\Bee\artifacts\mvdfrm\UnityEngine.UnityWebRequestModule.dll_84C82677144E37AF.mvfrm
Library\Bee\artifacts\mvdfrm\UnityEngine.UnityWebRequestTextureModule.dll_1749F7C371E85210.mvfrm
Library\Bee\artifacts\mvdfrm\UnityEngine.UnityWebRequestWWWModule.dll_0615361FF06A220C.mvfrm
Library\Bee\artifacts\mvdfrm\UnityEngine.VehiclesModule.dll_108FAB323868FE3C.mvfrm
Library\Bee\artifacts\mvdfrm\UnityEngine.VFXModule.dll_39BCCB087EA42427.mvfrm
Library\Bee\artifacts\mvdfrm\UnityEngine.VideoModule.dll_ECFEE5A97842639A.mvfrm
Library\Bee\artifacts\mvdfrm\UnityEngine.VirtualTexturingModule.dll_A2A211B0BA65ED22.mvfrm
Library\Bee\artifacts\mvdfrm\UnityEngine.VRModule.dll_2309202FA75A7CB1.mvfrm
Library\Bee\artifacts\mvdfrm\UnityEngine.WindModule.dll_BF182FD063219DED.mvfrm
Library\Bee\artifacts\mvdfrm\UnityEngine.XRModule.dll_55C7E3343094CA0F.mvfrm
Library\Bee\artifacts\mvdfrm\UnityEditor.WindowsStandalone.Extensions.dll_671F2CDC7A6113D7.mvfrm