-target:library
-out:"Library/Bee/artifacts/500b0aE.dag/Unity.ML-Agents.dll"
-refout:"Library/Bee/artifacts/500b0aE.dag/Unity.ML-Agents.ref.dll"
-define:UNITY_2021_3_15
-define:UNITY_2021_3
-define:UNITY_2021
-define:UNITY_5_3_OR_NEWER
-define:UNITY_5_4_OR_NEWER
-define:UNITY_5_5_OR_NEWER
-define:UNITY_5_6_OR_NEWER
-define:UNITY_2017_1_OR_NEWER
-define:UNITY_2017_2_OR_NEWER
-define:UNITY_2017_3_OR_NEWER
-define:UNITY_2017_4_OR_NEWER
-define:UNITY_2018_1_OR_NEWER
-define:UNITY_2018_2_OR_NEWER
-define:UNITY_2018_3_OR_NEWER
-define:UNITY_2018_4_OR_NEWER
-define:UNITY_2019_1_OR_NEWER
-define:UNITY_2019_2_OR_NEWER
-define:UNITY_2019_3_OR_NEWER
-define:UNITY_2019_4_OR_NEWER
-define:UNITY_2020_1_OR_NEWER
-define:UNITY_2020_2_OR_NEWER
-define:UNITY_2020_3_OR_NEWER
-define:UNITY_2021_1_OR_NEWER
-define:UNITY_2021_2_OR_NEWER
-define:UNITY_2021_3_OR_NEWER
-define:UNITY_INCLUDE_TESTS
-define:USE_SEARCH_ENGINE_API
-define:USE_SEARCH_TABLE
-define:USE_SEARCH_MODULE
-define:USE_PROPERTY_DATABASE
-define:USE_SEARCH_EXTENSION_API
-define:ENABLE_AR
-define:ENABLE_AUDIO
-define:ENABLE_CACHING
-define:ENABLE_CLOTH
-define:ENABLE_EVENT_QUEUE
-define:ENABLE_MICROPHONE
-define:ENABLE_MULTIPLE_DISPLAYS
-define:ENABLE_PHYSICS
-define:ENABLE_TEXTURE_STREAMING
-define:ENABLE_VIRTUALTEXTURING
-define:ENABLE_UNET
-define:ENABLE_LZMA
-define:ENABLE_UNITYEVENTS
-define:ENABLE_VR
-define:ENABLE_WEBCAM
-define:ENABLE_UNITYWEBREQUEST
-define:ENABLE_WWW
-define:ENABLE_CLOUD_SERVICES
-define:ENABLE_CLOUD_SERVICES_COLLAB
-define:ENABLE_CLOUD_SERVICES_COLLAB_SOFTLOCKS
-define:ENABLE_CLOUD_SERVICES_ADS
-define:ENABLE_CLOUD_SERVICES_USE_WEBREQUEST
-define:ENABLE_CLOUD_SERVICES_CRASH_REPORTING
-define:ENABLE_CLOUD_SERVICES_PURCHASING
-define:ENABLE_CLOUD_SERVICES_ANALYTICS
-define:ENABLE_CLOUD_SERVICES_UNET
-define:ENABLE_CLOUD_SERVICES_BUILD
-define:ENABLE_CLOUD_LICENSE
-define:ENABLE_EDITOR_HUB_LICENSE
-define:ENABLE_WEBSOCKET_CLIENT
-define:ENABLE_DIRECTOR_AUDIO
-define:ENABLE_DIRECTOR_TEXTURE
-define:ENABLE_MANAGED_JOBS
-define:ENABLE_MANAGED_TRANSFORM_JOBS
-define:ENABLE_MANAGED_ANIMATION_JOBS
-define:ENABLE_MANAGED_AUDIO_JOBS
-define:ENABLE_MANAGED_UNITYTLS
-define:INCLUDE_DYNAMIC_GI
-define:ENABLE_SCRIPTING_GC_WBARRIERS
-define:PLATFORM_SUPPORTS_MONO
-define:RENDER_SOFTWARE_CURSOR
-define:ENABLE_VIDEO
-define:ENABLE_ACCELERATOR_CLIENT_DEBUGGING
-define:PLATFORM_STANDALONE
-define:TEXTCORE_1_0_OR_NEWER
-define:PLATFORM_STANDALONE_WIN
-define:UNITY_STANDALONE_WIN
-define:UNITY_STANDALONE
-define:ENABLE_RUNTIME_GI
-define:ENABLE_MOVIES
-define:ENABLE_NETWORK
-define:ENABLE_NVIDIA
-define:ENABLE_CRUNCH_TEXTURE_COMPRESSION
-define:ENABLE_UNITY_GAME_SERVICES_ANALYTICS_SUPPORT
-define:ENABLE_OUT_OF_PROCESS_CRASH_HANDLER
-define:ENABLE_CLUSTER_SYNC
-define:ENABLE_CLUSTERINPUT
-define:PLATFORM_UPDATES_TIME_OUTSIDE_OF_PLAYER_LOOP
-define:GFXDEVICE_WAITFOREVENT_MESSAGEPUMP
-define:ENABLE_WEBSOCKET_HOST
-define:ENABLE_MONO
-define:NET_STANDARD_2_0
-define:NET_STANDARD
-define:NET_STANDARD_2_1
-define:NETSTANDARD
-define:NETSTANDARD2_1
-define:ENABLE_PROFILER
-define:DEBUG
-define:TRACE
-define:UNITY_ASSERTIONS
-define:UNITY_EDITOR
-define:UNITY_EDITOR_64
-define:UNITY_EDITOR_WIN
-define:ENABLE_UNITY_COLLECTIONS_CHECKS
-define:ENABLE_BURST_AOT
-define:UNITY_TEAM_LICENSE
-define:ENABLE_CUSTOM_RENDER_TEXTURE
-define:ENABLE_DIRECTOR
-define:ENABLE_LOCALIZATION
-define:ENABLE_SPRITES
-define:ENABLE_TERRAIN
-define:ENABLE_TILEMAP
-define:ENABLE_TIMELINE
-define:ENABLE_LEGACY_INPUT_MANAGER
-define:MLA_UNITY_ANALYTICS_MODULE
-define:MLA_UNITY_PHYSICS_MODULE
-define:MLA_UNITY_PHYSICS2D_MODULE
-define:CSHARP_7_OR_LATER
-define:CSHARP_7_3_OR_NEWER
-r:"D:/Ana-Marija/Diplomski/Gravity_Agents/Library/PackageCache/com.unity.barracuda@2.3.1-preview/Barracuda/Runtime/Plugins/ProtoBuffer/Google.Protobuf.dll"
-r:"D:/Ana-Marija/Diplomski/Gravity_Agents/Library/PackageCache/com.unity.burst@1.6.6/Unity.Burst.CodeGen/Unity.Burst.Cecil.dll"
-r:"D:/Ana-Marija/Diplomski/Gravity_Agents/Library/PackageCache/com.unity.burst@1.6.6/Unity.Burst.CodeGen/Unity.Burst.Cecil.Mdb.dll"
-r:"D:/Ana-Marija/Diplomski/Gravity_Agents/Library/PackageCache/com.unity.burst@1.6.6/Unity.Burst.CodeGen/Unity.Burst.Cecil.Pdb.dll"
-r:"D:/Ana-Marija/Diplomski/Gravity_Agents/Library/PackageCache/com.unity.burst@1.6.6/Unity.Burst.CodeGen/Unity.Burst.Cecil.Rocks.dll"
-r:"D:/Ana-Marija/Diplomski/Gravity_Agents/Library/PackageCache/com.unity.burst@1.6.6/Unity.Burst.Unsafe.dll"
-r:"D:/Ana-Marija/Diplomski/Gravity_Agents/Library/PackageCache/com.unity.collab-proxy@1.17.7/Lib/Editor/PlasticSCM/log4netPlastic.dll"
-r:"D:/Ana-Marija/Diplomski/Gravity_Agents/Library/PackageCache/com.unity.collab-proxy@1.17.7/Lib/Editor/PlasticSCM/Unity.Plastic.Antlr3.Runtime.dll"
-r:"D:/Ana-Marija/Diplomski/Gravity_Agents/Library/PackageCache/com.unity.collab-proxy@1.17.7/Lib/Editor/PlasticSCM/Unity.Plastic.Newtonsoft.Json.dll"
-r:"D:/Ana-Marija/Diplomski/Gravity_Agents/Library/PackageCache/com.unity.collab-proxy@1.17.7/Lib/Editor/PlasticSCM/unityplastic.dll"
-r:"D:/Ana-Marija/Diplomski/Gravity_Agents/Library/PackageCache/com.unity.nuget.newtonsoft-json@3.0.2/Runtime/Newtonsoft.Json.dll"
-r:"D:/Ana-Marija/Diplomski/ml-agents-release_19/com.unity.ml-agents/Plugins/ProtoBuffer/Grpc.Core.dll"
-r:"D:/Ana-Marija/Diplomski/ml-agents-release_19/com.unity.ml-agents/Plugins/ProtoBuffer/System.Interactive.Async.dll"
-r:"D:/Ana-Marija/Diplomski/ml-agents-release_19/com.unity.ml-agents/Plugins/System.IO.Abstractions.dll"
-r:"D:/Ana-Marija/Diplomski/ml-agents-release_19/com.unity.ml-agents/Plugins/System.IO.Abstractions.TestingHelpers.dll"
-r:"D:/Downloads/2021.3.15f1/Editor/Data/Managed/UnityEditor.Graphs.dll"
-r:"D:/Downloads/2021.3.15f1/Editor/Data/Managed/UnityEngine/UnityEditor.CoreModule.dll"
-r:"D:/Downloads/2021.3.15f1/Editor/Data/Managed/UnityEngine/UnityEditor.DeviceSimulatorModule.dll"
-r:"D:/Downloads/2021.3.15f1/Editor/Data/Managed/UnityEngine/UnityEditor.DiagnosticsModule.dll"
-r:"D:/Downloads/2021.3.15f1/Editor/Data/Managed/UnityEngine/UnityEditor.dll"
-r:"D:/Downloads/2021.3.15f1/Editor/Data/Managed/UnityEngine/UnityEditor.GraphViewModule.dll"
-r:"D:/Downloads/2021.3.15f1/Editor/Data/Managed/UnityEngine/UnityEditor.PackageManagerUIModule.dll"
-r:"D:/Downloads/2021.3.15f1/Editor/Data/Managed/UnityEngine/UnityEditor.QuickSearchModule.dll"
-r:"D:/Downloads/2021.3.15f1/Editor/Data/Managed/UnityEngine/UnityEditor.SceneTemplateModule.dll"
-r:"D:/Downloads/2021.3.15f1/Editor/Data/Managed/UnityEngine/UnityEditor.TextCoreFontEngineModule.dll"
-r:"D:/Downloads/2021.3.15f1/Editor/Data/Managed/UnityEngine/UnityEditor.TextCoreTextEngineModule.dll"
-r:"D:/Downloads/2021.3.15f1/Editor/Data/Managed/UnityEngine/UnityEditor.UIBuilderModule.dll"
-r:"D:/Downloads/2021.3.15f1/Editor/Data/Managed/UnityEngine/UnityEditor.UIElementsModule.dll"
-r:"D:/Downloads/2021.3.15f1/Editor/Data/Managed/UnityEngine/UnityEditor.UIElementsSamplesModule.dll"
-r:"D:/Downloads/2021.3.15f1/Editor/Data/Managed/UnityEngine/UnityEditor.UIServiceModule.dll"
-r:"D:/Downloads/2021.3.15f1/Editor/Data/Managed/UnityEngine/UnityEditor.UnityConnectModule.dll"
-r:"D:/Downloads/2021.3.15f1/Editor/Data/Managed/UnityEngine/UnityEngine.AccessibilityModule.dll"
-r:"D:/Downloads/2021.3.15f1/Editor/Data/Managed/UnityEngine/UnityEngine.AIModule.dll"
-r:"D:/Downloads/2021.3.15f1/Editor/Data/Managed/UnityEngine/UnityEngine.AndroidJNIModule.dll"
-r:"D:/Downloads/2021.3.15f1/Editor/Data/Managed/UnityEngine/UnityEngine.AnimationModule.dll"
-r:"D:/Downloads/2021.3.15f1/Editor/Data/Managed/UnityEngine/UnityEngine.ARModule.dll"
-r:"D:/Downloads/2021.3.15f1/Editor/Data/Managed/UnityEngine/UnityEngine.AssetBundleModule.dll"
-r:"D:/Downloads/2021.3.15f1/Editor/Data/Managed/UnityEngine/UnityEngine.AudioModule.dll"
-r:"D:/Downloads/2021.3.15f1/Editor/Data/Managed/UnityEngine/UnityEngine.ClothModule.dll"
-r:"D:/Downloads/2021.3.15f1/Editor/Data/Managed/UnityEngine/UnityEngine.ClusterInputModule.dll"
-r:"D:/Downloads/2021.3.15f1/Editor/Data/Managed/UnityEngine/UnityEngine.ClusterRendererModule.dll"
-r:"D:/Downloads/2021.3.15f1/Editor/Data/Managed/UnityEngine/UnityEngine.CoreModule.dll"
-r:"D:/Downloads/2021.3.15f1/Editor/Data/Managed/UnityEngine/UnityEngine.CrashReportingModule.dll"
-r:"D:/Downloads/2021.3.15f1/Editor/Data/Managed/UnityEngine/UnityEngine.DirectorModule.dll"
-r:"D:/Downloads/2021.3.15f1/Editor/Data/Managed/UnityEngine/UnityEngine.dll"
-r:"D:/Downloads/2021.3.15f1/Editor/Data/Managed/UnityEngine/UnityEngine.DSPGraphModule.dll"
-r:"D:/Downloads/2021.3.15f1/Editor/Data/Managed/UnityEngine/UnityEngine.GameCenterModule.dll"
-r:"D:/Downloads/2021.3.15f1/Editor/Data/Managed/UnityEngine/UnityEngine.GIModule.dll"
-r:"D:/Downloads/2021.3.15f1/Editor/Data/Managed/UnityEngine/UnityEngine.GridModule.dll"
-r:"D:/Downloads/2021.3.15f1/Editor/Data/Managed/UnityEngine/UnityEngine.HotReloadModule.dll"
-r:"D:/Downloads/2021.3.15f1/Editor/Data/Managed/UnityEngine/UnityEngine.ImageConversionModule.dll"
-r:"D:/Downloads/2021.3.15f1/Editor/Data/Managed/UnityEngine/UnityEngine.IMGUIModule.dll"
-r:"D:/Downloads/2021.3.15f1/Editor/Data/Managed/UnityEngine/UnityEngine.InputLegacyModule.dll"
-r:"D:/Downloads/2021.3.15f1/Editor/Data/Managed/UnityEngine/UnityEngine.InputModule.dll"
-r:"D:/Downloads/2021.3.15f1/Editor/Data/Managed/UnityEngine/UnityEngine.JSONSerializeModule.dll"
-r:"D:/Downloads/2021.3.15f1/Editor/Data/Managed/UnityEngine/UnityEngine.LocalizationModule.dll"
-r:"D:/Downloads/2021.3.15f1/Editor/Data/Managed/UnityEngine/UnityEngine.ParticleSystemModule.dll"
-r:"D:/Downloads/2021.3.15f1/Editor/Data/Managed/UnityEngine/UnityEngine.PerformanceReportingModule.dll"
-r:"D:/Downloads/2021.3.15f1/Editor/Data/Managed/UnityEngine/UnityEngine.Physics2DModule.dll"
-r:"D:/Downloads/2021.3.15f1/Editor/Data/Managed/UnityEngine/UnityEngine.PhysicsModule.dll"
-r:"D:/Downloads/2021.3.15f1/Editor/Data/Managed/UnityEngine/UnityEngine.ProfilerModule.dll"
-r:"D:/Downloads/2021.3.15f1/Editor/Data/Managed/UnityEngine/UnityEngine.RuntimeInitializeOnLoadManagerInitializerModule.dll"
-r:"D:/Downloads/2021.3.15f1/Editor/Data/Managed/UnityEngine/UnityEngine.ScreenCaptureModule.dll"
-r:"D:/Downloads/2021.3.15f1/Editor/Data/Managed/UnityEngine/UnityEngine.SharedInternalsModule.dll"
-r:"D:/Downloads/2021.3.15f1/Editor/Data/Managed/UnityEngine/UnityEngine.SpriteMaskModule.dll"
-r:"D:/Downloads/2021.3.15f1/Editor/Data/Managed/UnityEngine/UnityEngine.SpriteShapeModule.dll"
-r:"D:/Downloads/2021.3.15f1/Editor/Data/Managed/UnityEngine/UnityEngine.StreamingModule.dll"
-r:"D:/Downloads/2021.3.15f1/Editor/Data/Managed/UnityEngine/UnityEngine.SubstanceModule.dll"
-r:"D:/Downloads/2021.3.15f1/Editor/Data/Managed/UnityEngine/UnityEngine.SubsystemsModule.dll"
-r:"D:/Downloads/2021.3.15f1/Editor/Data/Managed/UnityEngine/UnityEngine.TerrainModule.dll"
-r:"D:/Downloads/2021.3.15f1/Editor/Data/Managed/UnityEngine/UnityEngine.TerrainPhysicsModule.dll"
-r:"D:/Downloads/2021.3.15f1/Editor/Data/Managed/UnityEngine/UnityEngine.TextCoreFontEngineModule.dll"
-r:"D:/Downloads/2021.3.15f1/Editor/Data/Managed/UnityEngine/UnityEngine.TextCoreTextEngineModule.dll"
-r:"D:/Downloads/2021.3.15f1/Editor/Data/Managed/UnityEngine/UnityEngine.TextRenderingModule.dll"
-r:"D:/Downloads/2021.3.15f1/Editor/Data/Managed/UnityEngine/UnityEngine.TilemapModule.dll"
-r:"D:/Downloads/2021.3.15f1/Editor/Data/Managed/UnityEngine/UnityEngine.TLSModule.dll"
-r:"D:/Downloads/2021.3.15f1/Editor/Data/Managed/UnityEngine/UnityEngine.UIElementsModule.dll"
-r:"D:/Downloads/2021.3.15f1/Editor/Data/Managed/UnityEngine/UnityEngine.UIElementsNativeModule.dll"
-r:"D:/Downloads/2021.3.15f1/Editor/Data/Managed/UnityEngine/UnityEngine.UIModule.dll"
-r:"D:/Downloads/2021.3.15f1/Editor/Data/Managed/UnityEngine/UnityEngine.UmbraModule.dll"
-r:"D:/Downloads/2021.3.15f1/Editor/Data/Managed/UnityEngine/UnityEngine.UNETModule.dll"
-r:"D:/Downloads/2021.3.15f1/Editor/Data/Managed/UnityEngine/UnityEngine.UnityAnalyticsCommonModule.dll"
-r:"D:/Downloads/2021.3.15f1/Editor/Data/Managed/UnityEngine/UnityEngine.UnityAnalyticsModule.dll"
-r:"D:/Downloads/2021.3.15f1/Editor/Data/Managed/UnityEngine/UnityEngine.UnityConnectModule.dll"
-r:"D:/Downloads/2021.3.15f1/Editor/Data/Managed/UnityEngine/UnityEngine.UnityCurlModule.dll"
-r:"D:/Downloads/2021.3.15f1/Editor/Data/Managed/UnityEngine/UnityEngine.UnityTestProtocolModule.dll"
-r:"D:/Downloads/2021.3.15f1/Editor/Data/Managed/UnityEngine/UnityEngine.UnityWebRequestAssetBundleModule.dll"
-r:"D:/Downloads/2021.3.15f1/Editor/Data/Managed/UnityEngine/UnityEngine.UnityWebRequestAudioModule.dll"
-r:"D:/Downloads/2021.3.15f1/Editor/Data/Managed/UnityEngine/UnityEngine.UnityWebRequestModule.dll"
-r:"D:/Downloads/2021.3.15f1/Editor/Data/Managed/UnityEngine/UnityEngine.UnityWebRequestTextureModule.dll"
-r:"D:/Downloads/2021.3.15f1/Editor/Data/Managed/UnityEngine/UnityEngine.UnityWebRequestWWWModule.dll"
-r:"D:/Downloads/2021.3.15f1/Editor/Data/Managed/UnityEngine/UnityEngine.VehiclesModule.dll"
-r:"D:/Downloads/2021.3.15f1/Editor/Data/Managed/UnityEngine/UnityEngine.VFXModule.dll"
-r:"D:/Downloads/2021.3.15f1/Editor/Data/Managed/UnityEngine/UnityEngine.VideoModule.dll"
-r:"D:/Downloads/2021.3.15f1/Editor/Data/Managed/UnityEngine/UnityEngine.VirtualTexturingModule.dll"
-r:"D:/Downloads/2021.3.15f1/Editor/Data/Managed/UnityEngine/UnityEngine.VRModule.dll"
-r:"D:/Downloads/2021.3.15f1/Editor/Data/Managed/UnityEngine/UnityEngine.WindModule.dll"
-r:"D:/Downloads/2021.3.15f1/Editor/Data/Managed/UnityEngine/UnityEngine.XRModule.dll"
-r:"D:/Downloads/2021.3.15f1/Editor/Data/NetStandard/compat/2.1.0/shims/netfx/mscorlib.dll"
-r:"D:/Downloads/2021.3.15f1/Editor/Data/NetStandard/compat/2.1.0/shims/netfx/System.ComponentModel.Composition.dll"
-r:"D:/Downloads/2021.3.15f1/Editor/Data/NetStandard/compat/2.1.0/shims/netfx/System.Core.dll"
-r:"D:/Downloads/2021.3.15f1/Editor/Data/NetStandard/compat/2.1.0/shims/netfx/System.Data.dll"
-r:"D:/Downloads/2021.3.15f1/Editor/Data/NetStandard/compat/2.1.0/shims/netfx/System.dll"
-r:"D:/Downloads/2021.3.15f1/Editor/Data/NetStandard/compat/2.1.0/shims/netfx/System.Drawing.dll"
-r:"D:/Downloads/2021.3.15f1/Editor/Data/NetStandard/compat/2.1.0/shims/netfx/System.IO.Compression.FileSystem.dll"
-r:"D:/Downloads/2021.3.15f1/Editor/Data/NetStandard/compat/2.1.0/shims/netfx/System.Net.dll"
-r:"D:/Downloads/2021.3.15f1/Editor/Data/NetStandard/compat/2.1.0/shims/netfx/System.Numerics.dll"
-r:"D:/Downloads/2021.3.15f1/Editor/Data/NetStandard/compat/2.1.0/shims/netfx/System.Runtime.Serialization.dll"
-r:"D:/Downloads/2021.3.15f1/Editor/Data/NetStandard/compat/2.1.0/shims/netfx/System.ServiceModel.Web.dll"
-r:"D:/Downloads/2021.3.15f1/Editor/Data/NetStandard/compat/2.1.0/shims/netfx/System.Transactions.dll"
-r:"D:/Downloads/2021.3.15f1/Editor/Data/NetStandard/compat/2.1.0/shims/netfx/System.Web.dll"
-r:"D:/Downloads/2021.3.15f1/Editor/Data/NetStandard/compat/2.1.0/shims/netfx/System.Windows.dll"
-r:"D:/Downloads/2021.3.15f1/Editor/Data/NetStandard/compat/2.1.0/shims/netfx/System.Xml.dll"
-r:"D:/Downloads/2021.3.15f1/Editor/Data/NetStandard/compat/2.1.0/shims/netfx/System.Xml.Linq.dll"
-r:"D:/Downloads/2021.3.15f1/Editor/Data/NetStandard/compat/2.1.0/shims/netfx/System.Xml.Serialization.dll"
-r:"D:/Downloads/2021.3.15f1/Editor/Data/NetStandard/compat/2.1.0/shims/netstandard/Microsoft.Win32.Primitives.dll"
-r:"D:/Downloads/2021.3.15f1/Editor/Data/NetStandard/compat/2.1.0/shims/netstandard/System.AppContext.dll"
-r:"D:/Downloads/2021.3.15f1/Editor/Data/NetStandard/compat/2.1.0/shims/netstandard/System.Buffers.dll"
-r:"D:/Downloads/2021.3.15f1/Editor/Data/NetStandard/compat/2.1.0/shims/netstandard/System.Collections.Concurrent.dll"
-r:"D:/Downloads/2021.3.15f1/Editor/Data/NetStandard/compat/2.1.0/shims/netstandard/System.Collections.dll"
-r:"D:/Downloads/2021.3.15f1/Editor/Data/NetStandard/compat/2.1.0/shims/netstandard/System.Collections.NonGeneric.dll"
-r:"D:/Downloads/2021.3.15f1/Editor/Data/NetStandard/compat/2.1.0/shims/netstandard/System.Collections.Specialized.dll"
-r:"D:/Downloads/2021.3.15f1/Editor/Data/NetStandard/compat/2.1.0/shims/netstandard/System.ComponentModel.dll"
-r:"D:/Downloads/2021.3.15f1/Editor/Data/NetStandard/compat/2.1.0/shims/netstandard/System.ComponentModel.EventBasedAsync.dll"
-r:"D:/Downloads/2021.3.15f1/Editor/Data/NetStandard/compat/2.1.0/shims/netstandard/System.ComponentModel.Primitives.dll"
-r:"D:/Downloads/2021.3.15f1/Editor/Data/NetStandard/compat/2.1.0/shims/netstandard/System.ComponentModel.TypeConverter.dll"
-r:"D:/Downloads/2021.3.15f1/Editor/Data/NetStandard/compat/2.1.0/shims/netstandard/System.Console.dll"
-r:"D:/Downloads/2021.3.15f1/Editor/Data/NetStandard/compat/2.1.0/shims/netstandard/System.Data.Common.dll"
-r:"D:/Downloads/2021.3.15f1/Editor/Data/NetStandard/compat/2.1.0/shims/netstandard/System.Diagnostics.Contracts.dll"
-r:"D:/Downloads/2021.3.15f1/Editor/Data/NetStandard/compat/2.1.0/shims/netstandard/System.Diagnostics.Debug.dll"
-r:"D:/Downloads/2021.3.15f1/Editor/Data/NetStandard/compat/2.1.0/shims/netstandard/System.Diagnostics.FileVersionInfo.dll"
-r:"D:/Downloads/2021.3.15f1/Editor/Data/NetStandard/compat/2.1.0/shims/netstandard/System.Diagnostics.Process.dll"
-r:"D:/Downloads/2021.3.15f1/Editor/Data/NetStandard/compat/2.1.0/shims/netstandard/System.Diagnostics.StackTrace.dll"
-r:"D:/Downloads/2021.3.15f1/Editor/Data/NetStandard/compat/2.1.0/shims/netstandard/System.Diagnostics.TextWriterTraceListener.dll"
-r:"D:/Downloads/2021.3.15f1/Editor/Data/NetStandard/compat/2.1.0/shims/netstandard/System.Diagnostics.Tools.dll"
-r:"D:/Downloads/2021.3.15f1/Editor/Data/NetStandard/compat/2.1.0/shims/netstandard/System.Diagnostics.TraceSource.dll"
-r:"D:/Downloads/2021.3.15f1/Editor/Data/NetStandard/compat/2.1.0/shims/netstandard/System.Diagnostics.Tracing.dll"
-r:"D:/Downloads/2021.3.15f1/Editor/Data/NetStandard/compat/2.1.0/shims/netstandard/System.Drawing.Primitives.dll"
-r:"D:/Downloads/2021.3.15f1/Editor/Data/NetStandard/compat/2.1.0/shims/netstandard/System.Dynamic.Runtime.dll"
-r:"D:/Downloads/2021.3.15f1/Editor/Data/NetStandard/compat/2.1.0/shims/netstandard/System.Globalization.Calendars.dll"
-r:"D:/Downloads/2021.3.15f1/Editor/Data/NetStandard/compat/2.1.0/shims/netstandard/System.Globalization.dll"
-r:"D:/Downloads/2021.3.15f1/Editor/Data/NetStandard/compat/2.1.0/shims/netstandard/System.Globalization.Extensions.dll"
-r:"D:/Downloads/2021.3.15f1/Editor/Data/NetStandard/compat/2.1.0/shims/netstandard/System.IO.Compression.dll"
-r:"D:/Downloads/2021.3.15f1/Editor/Data/NetStandard/compat/2.1.0/shims/netstandard/System.IO.Compression.ZipFile.dll"
-r:"D:/Downloads/2021.3.15f1/Editor/Data/NetStandard/compat/2.1.0/shims/netstandard/System.IO.dll"
-r:"D:/Downloads/2021.3.15f1/Editor/Data/NetStandard/compat/2.1.0/shims/netstandard/System.IO.FileSystem.dll"
-r:"D:/Downloads/2021.3.15f1/Editor/Data/NetStandard/compat/2.1.0/shims/netstandard/System.IO.FileSystem.DriveInfo.dll"
-r:"D:/Downloads/2021.3.15f1/Editor/Data/NetStandard/compat/2.1.0/shims/netstandard/System.IO.FileSystem.Primitives.dll"
-r:"D:/Downloads/2021.3.15f1/Editor/Data/NetStandard/compat/2.1.0/shims/netstandard/System.IO.FileSystem.Watcher.dll"
-r:"D:/Downloads/2021.3.15f1/Editor/Data/NetStandard/compat/2.1.0/shims/netstandard/System.IO.IsolatedStorage.dll"
-r:"D:/Downloads/2021.3.15f1/Editor/Data/NetStandard/compat/2.1.0/shims/netstandard/System.IO.MemoryMappedFiles.dll"
-r:"D:/Downloads/2021.3.15f1/Editor/Data/NetStandard/compat/2.1.0/shims/netstandard/System.IO.Pipes.dll"
-r:"D:/Downloads/2021.3.15f1/Editor/Data/NetStandard/compat/2.1.0/shims/netstandard/System.IO.UnmanagedMemoryStream.dll"
-r:"D:/Downloads/2021.3.15f1/Editor/Data/NetStandard/compat/2.1.0/shims/netstandard/System.Linq.dll"
-r:"D:/Downloads/2021.3.15f1/Editor/Data/NetStandard/compat/2.1.0/shims/netstandard/System.Linq.Expressions.dll"
-r:"D:/Downloads/2021.3.15f1/Editor/Data/NetStandard/compat/2.1.0/shims/netstandard/System.Linq.Parallel.dll"
-r:"D:/Downloads/2021.3.15f1/Editor/Data/NetStandard/compat/2.1.0/shims/netstandard/System.Linq.Queryable.dll"
-r:"D:/Downloads/2021.3.15f1/Editor/Data/NetStandard/compat/2.1.0/shims/netstandard/System.Memory.dll"
-r:"D:/Downloads/2021.3.15f1/Editor/Data/NetStandard/compat/2.1.0/shims/netstandard/System.Net.Http.dll"
-r:"D:/Downloads/2021.3.15f1/Editor/Data/NetStandard/compat/2.1.0/shims/netstandard/System.Net.NameResolution.dll"
-r:"D:/Downloads/2021.3.15f1/Editor/Data/NetStandard/compat/2.1.0/shims/netstandard/System.Net.NetworkInformation.dll"
-r:"D:/Downloads/2021.3.15f1/Editor/Data/NetStandard/compat/2.1.0/shims/netstandard/System.Net.Ping.dll"
-r:"D:/Downloads/2021.3.15f1/Editor/Data/NetStandard/compat/2.1.0/shims/netstandard/System.Net.Primitives.dll"
-r:"D:/Downloads/2021.3.15f1/Editor/Data/NetStandard/compat/2.1.0/shims/netstandard/System.Net.Requests.dll"
-r:"D:/Downloads/2021.3.15f1/Editor/Data/NetStandard/compat/2.1.0/shims/netstandard/System.Net.Security.dll"
-r:"D:/Downloads/2021.3.15f1/Editor/Data/NetStandard/compat/2.1.0/shims/netstandard/System.Net.Sockets.dll"
-r:"D:/Downloads/2021.3.15f1/Editor/Data/NetStandard/compat/2.1.0/shims/netstandard/System.Net.WebHeaderCollection.dll"
-r:"D:/Downloads/2021.3.15f1/Editor/Data/NetStandard/compat/2.1.0/shims/netstandard/System.Net.WebSockets.Client.dll"
-r:"D:/Downloads/2021.3.15f1/Editor/Data/NetStandard/compat/2.1.0/shims/netstandard/System.Net.WebSockets.dll"
-r:"D:/Downloads/2021.3.15f1/Editor/Data/NetStandard/compat/2.1.0/shims/netstandard/System.Numerics.Vectors.dll"
-r:"D:/Downloads/2021.3.15f1/Editor/Data/NetStandard/compat/2.1.0/shims/netstandard/System.ObjectModel.dll"
-r:"D:/Downloads/2021.3.15f1/Editor/Data/NetStandard/compat/2.1.0/shims/netstandard/System.Reflection.DispatchProxy.dll"
-r:"D:/Downloads/2021.3.15f1/Editor/Data/NetStandard/compat/2.1.0/shims/netstandard/System.Reflection.dll"
-r:"D:/Downloads/2021.3.15f1/Editor/Data/NetStandard/compat/2.1.0/shims/netstandard/System.Reflection.Emit.dll"
-r:"D:/Downloads/2021.3.15f1/Editor/Data/NetStandard/compat/2.1.0/shims/netstandard/System.Reflection.Emit.ILGeneration.dll"
-r:"D:/Downloads/2021.3.15f1/Editor/Data/NetStandard/compat/2.1.0/shims/netstandard/System.Reflection.Emit.Lightweight.dll"
-r:"D:/Downloads/2021.3.15f1/Editor/Data/NetStandard/compat/2.1.0/shims/netstandard/System.Reflection.Extensions.dll"
-r:"D:/Downloads/2021.3.15f1/Editor/Data/NetStandard/compat/2.1.0/shims/netstandard/System.Reflection.Primitives.dll"
-r:"D:/Downloads/2021.3.15f1/Editor/Data/NetStandard/compat/2.1.0/shims/netstandard/System.Resources.Reader.dll"
-r:"D:/Downloads/2021.3.15f1/Editor/Data/NetStandard/compat/2.1.0/shims/netstandard/System.Resources.ResourceManager.dll"
-r:"D:/Downloads/2021.3.15f1/Editor/Data/NetStandard/compat/2.1.0/shims/netstandard/System.Resources.Writer.dll"
-r:"D:/Downloads/2021.3.15f1/Editor/Data/NetStandard/compat/2.1.0/shims/netstandard/System.Runtime.CompilerServices.VisualC.dll"
-r:"D:/Downloads/2021.3.15f1/Editor/Data/NetStandard/compat/2.1.0/shims/netstandard/System.Runtime.dll"
-r:"D:/Downloads/2021.3.15f1/Editor/Data/NetStandard/compat/2.1.0/shims/netstandard/System.Runtime.Extensions.dll"
-r:"D:/Downloads/2021.3.15f1/Editor/Data/NetStandard/compat/2.1.0/shims/netstandard/System.Runtime.Handles.dll"
-r:"D:/Downloads/2021.3.15f1/Editor/Data/NetStandard/compat/2.1.0/shims/netstandard/System.Runtime.InteropServices.dll"
-r:"D:/Downloads/2021.3.15f1/Editor/Data/NetStandard/compat/2.1.0/shims/netstandard/System.Runtime.InteropServices.RuntimeInformation.dll"
-r:"D:/Downloads/2021.3.15f1/Editor/Data/NetStandard/compat/2.1.0/shims/netstandard/System.Runtime.Numerics.dll"
-r:"D:/Downloads/2021.3.15f1/Editor/Data/NetStandard/compat/2.1.0/shims/netstandard/System.Runtime.Serialization.Formatters.dll"
-r:"D:/Downloads/2021.3.15f1/Editor/Data/NetStandard/compat/2.1.0/shims/netstandard/System.Runtime.Serialization.Json.dll"
-r:"D:/Downloads/2021.3.15f1/Editor/Data/NetStandard/compat/2.1.0/shims/netstandard/System.Runtime.Serialization.Primitives.dll"
-r:"D:/Downloads/2021.3.15f1/Editor/Data/NetStandard/compat/2.1.0/shims/netstandard/System.Runtime.Serialization.Xml.dll"
-r:"D:/Downloads/2021.3.15f1/Editor/Data/NetStandard/compat/2.1.0/shims/netstandard/System.Security.Claims.dll"
-r:"D:/Downloads/2021.3.15f1/Editor/Data/NetStandard/compat/2.1.0/shims/netstandard/System.Security.Cryptography.Algorithms.dll"
-r:"D:/Downloads/2021.3.15f1/Editor/Data/NetStandard/compat/2.1.0/shims/netstandard/System.Security.Cryptography.Csp.dll"
-r:"D:/Downloads/2021.3.15f1/Editor/Data/NetStandard/compat/2.1.0/shims/netstandard/System.Security.Cryptography.Encoding.dll"
-r:"D:/Downloads/2021.3.15f1/Editor/Data/NetStandard/compat/2.1.0/shims/netstandard/System.Security.Cryptography.Primitives.dll"
-r:"D:/Downloads/2021.3.15f1/Editor/Data/NetStandard/compat/2.1.0/shims/netstandard/System.Security.Cryptography.X509Certificates.dll"
-r:"D:/Downloads/2021.3.15f1/Editor/Data/NetStandard/compat/2.1.0/shims/netstandard/System.Security.Principal.dll"
-r:"D:/Downloads/2021.3.15f1/Editor/Data/NetStandard/compat/2.1.0/shims/netstandard/System.Security.SecureString.dll"
-r:"D:/Downloads/2021.3.15f1/Editor/Data/NetStandard/compat/2.1.0/shims/netstandard/System.Text.Encoding.dll"
-r:"D:/Downloads/2021.3.15f1/Editor/Data/NetStandard/compat/2.1.0/shims/netstandard/System.Text.Encoding.Extensions.dll"
-r:"D:/Downloads/2021.3.15f1/Editor/Data/NetStandard/compat/2.1.0/shims/netstandard/System.Text.RegularExpressions.dll"
-r:"D:/Downloads/2021.3.15f1/Editor/Data/NetStandard/compat/2.1.0/shims/netstandard/System.Threading.dll"
-r:"D:/Downloads/2021.3.15f1/Editor/Data/NetStandard/compat/2.1.0/shims/netstandard/System.Threading.Overlapped.dll"
-r:"D:/Downloads/2021.3.15f1/Editor/Data/NetStandard/compat/2.1.0/shims/netstandard/System.Threading.Tasks.dll"
-r:"D:/Downloads/2021.3.15f1/Editor/Data/NetStandard/compat/2.1.0/shims/netstandard/System.Threading.Tasks.Extensions.dll"
-r:"D:/Downloads/2021.3.15f1/Editor/Data/NetStandard/compat/2.1.0/shims/netstandard/System.Threading.Tasks.Parallel.dll"
-r:"D:/Downloads/2021.3.15f1/Editor/Data/NetStandard/compat/2.1.0/shims/netstandard/System.Threading.Thread.dll"
-r:"D:/Downloads/2021.3.15f1/Editor/Data/NetStandard/compat/2.1.0/shims/netstandard/System.Threading.ThreadPool.dll"
-r:"D:/Downloads/2021.3.15f1/Editor/Data/NetStandard/compat/2.1.0/shims/netstandard/System.Threading.Timer.dll"
-r:"D:/Downloads/2021.3.15f1/Editor/Data/NetStandard/compat/2.1.0/shims/netstandard/System.ValueTuple.dll"
-r:"D:/Downloads/2021.3.15f1/Editor/Data/NetStandard/compat/2.1.0/shims/netstandard/System.Xml.ReaderWriter.dll"
-r:"D:/Downloads/2021.3.15f1/Editor/Data/NetStandard/compat/2.1.0/shims/netstandard/System.Xml.XDocument.dll"
-r:"D:/Downloads/2021.3.15f1/Editor/Data/NetStandard/compat/2.1.0/shims/netstandard/System.Xml.XmlDocument.dll"
-r:"D:/Downloads/2021.3.15f1/Editor/Data/NetStandard/compat/2.1.0/shims/netstandard/System.Xml.XmlSerializer.dll"
-r:"D:/Downloads/2021.3.15f1/Editor/Data/NetStandard/compat/2.1.0/shims/netstandard/System.Xml.XPath.dll"
-r:"D:/Downloads/2021.3.15f1/Editor/Data/NetStandard/compat/2.1.0/shims/netstandard/System.Xml.XPath.XDocument.dll"
-r:"D:/Downloads/2021.3.15f1/Editor/Data/NetStandard/Extensions/2.0.0/System.Runtime.InteropServices.WindowsRuntime.dll"
-r:"D:/Downloads/2021.3.15f1/Editor/Data/NetStandard/ref/2.1.0/netstandard.dll"
-r:"D:/Downloads/2021.3.15f1/Editor/Data/PlaybackEngines/WindowsStandaloneSupport/UnityEditor.WindowsStandalone.Extensions.dll"
-r:"Library/Bee/artifacts/500b0aE.dag/Unity.Barracuda.ref.dll"
-r:"Library/Bee/artifacts/500b0aE.dag/Unity.Mathematics.ref.dll"
-r:"Library/Bee/artifacts/500b0aE.dag/Unity.ML-Agents.CommunicatorObjects.ref.dll"
-r:"Library/Bee/artifacts/500b0aE.dag/UnityEditor.UI.ref.dll"
-r:"Library/Bee/artifacts/500b0aE.dag/UnityEngine.UI.ref.dll"
"D:/Ana-Marija/Diplomski/ml-agents-release_19/com.unity.ml-agents/Runtime/Academy.cs"
"D:/Ana-Marija/Diplomski/ml-agents-release_19/com.unity.ml-agents/Runtime/Actuators/ActionSegment.cs"
"D:/Ana-Marija/Diplomski/ml-agents-release_19/com.unity.ml-agents/Runtime/Actuators/ActionSpec.cs"
"D:/Ana-Marija/Diplomski/ml-agents-release_19/com.unity.ml-agents/Runtime/Actuators/ActuatorComponent.cs"
"D:/Ana-Marija/Diplomski/ml-agents-release_19/com.unity.ml-agents/Runtime/Actuators/ActuatorDiscreteActionMask.cs"
"D:/Ana-Marija/Diplomski/ml-agents-release_19/com.unity.ml-agents/Runtime/Actuators/ActuatorManager.cs"
"D:/Ana-Marija/Diplomski/ml-agents-release_19/com.unity.ml-agents/Runtime/Actuators/IActionReceiver.cs"
"D:/Ana-Marija/Diplomski/ml-agents-release_19/com.unity.ml-agents/Runtime/Actuators/IActuator.cs"
"D:/Ana-Marija/Diplomski/ml-agents-release_19/com.unity.ml-agents/Runtime/Actuators/IBuiltInActuator.cs"
"D:/Ana-Marija/Diplomski/ml-agents-release_19/com.unity.ml-agents/Runtime/Actuators/IDiscreteActionMask.cs"
"D:/Ana-Marija/Diplomski/ml-agents-release_19/com.unity.ml-agents/Runtime/Actuators/IHeuristicProvider.cs"
"D:/Ana-Marija/Diplomski/ml-agents-release_19/com.unity.ml-agents/Runtime/Actuators/VectorActuator.cs"
"D:/Ana-Marija/Diplomski/ml-agents-release_19/com.unity.ml-agents/Runtime/Agent.cs"
"D:/Ana-Marija/Diplomski/ml-agents-release_19/com.unity.ml-agents/Runtime/Analytics/AnalyticsUtils.cs"
"D:/Ana-Marija/Diplomski/ml-agents-release_19/com.unity.ml-agents/Runtime/Analytics/Events.cs"
"D:/Ana-Marija/Diplomski/ml-agents-release_19/com.unity.ml-agents/Runtime/Analytics/InferenceAnalytics.cs"
"D:/Ana-Marija/Diplomski/ml-agents-release_19/com.unity.ml-agents/Runtime/Analytics/TrainingAnalytics.cs"
"D:/Ana-Marija/Diplomski/ml-agents-release_19/com.unity.ml-agents/Runtime/Areas/TrainingAreaReplicator.cs"
"D:/Ana-Marija/Diplomski/ml-agents-release_19/com.unity.ml-agents/Runtime/AssemblyInfo.cs"
"D:/Ana-Marija/Diplomski/ml-agents-release_19/com.unity.ml-agents/Runtime/Communicator/CommunicatorFactory.cs"
"D:/Ana-Marija/Diplomski/ml-agents-release_19/com.unity.ml-agents/Runtime/Communicator/GrpcExtensions.cs"
"D:/Ana-Marija/Diplomski/ml-agents-release_19/com.unity.ml-agents/Runtime/Communicator/ICommunicator.cs"
"D:/Ana-Marija/Diplomski/ml-agents-release_19/com.unity.ml-agents/Runtime/Communicator/RpcCommunicator.cs"
"D:/Ana-Marija/Diplomski/ml-agents-release_19/com.unity.ml-agents/Runtime/Communicator/UnityRLCapabilities.cs"
"D:/Ana-Marija/Diplomski/ml-agents-release_19/com.unity.ml-agents/Runtime/Constants.cs"
"D:/Ana-Marija/Diplomski/ml-agents-release_19/com.unity.ml-agents/Runtime/DecisionRequester.cs"
"D:/Ana-Marija/Diplomski/ml-agents-release_19/com.unity.ml-agents/Runtime/Demonstrations/DemonstrationMetaData.cs"
"D:/Ana-Marija/Diplomski/ml-agents-release_19/com.unity.ml-agents/Runtime/Demonstrations/DemonstrationRecorder.cs"
"D:/Ana-Marija/Diplomski/ml-agents-release_19/com.unity.ml-agents/Runtime/Demonstrations/DemonstrationSummary.cs"
"D:/Ana-Marija/Diplomski/ml-agents-release_19/com.unity.ml-agents/Runtime/Demonstrations/DemonstrationWriter.cs"
"D:/Ana-Marija/Diplomski/ml-agents-release_19/com.unity.ml-agents/Runtime/EnvironmentParameters.cs"
"D:/Ana-Marija/Diplomski/ml-agents-release_19/com.unity.ml-agents/Runtime/EpisodeIdCounter.cs"
"D:/Ana-Marija/Diplomski/ml-agents-release_19/com.unity.ml-agents/Runtime/IMultiAgentGroup.cs"
"D:/Ana-Marija/Diplomski/ml-agents-release_19/com.unity.ml-agents/Runtime/Inference/ApplierImpl.cs"
"D:/Ana-Marija/Diplomski/ml-agents-release_19/com.unity.ml-agents/Runtime/Inference/BarracudaModelExtensions.cs"
"D:/Ana-Marija/Diplomski/ml-agents-release_19/com.unity.ml-agents/Runtime/Inference/BarracudaModelParamLoader.cs"
"D:/Ana-Marija/Diplomski/ml-agents-release_19/com.unity.ml-agents/Runtime/Inference/GeneratorImpl.cs"
"D:/Ana-Marija/Diplomski/ml-agents-release_19/com.unity.ml-agents/Runtime/Inference/ModelRunner.cs"
"D:/Ana-Marija/Diplomski/ml-agents-release_19/com.unity.ml-agents/Runtime/Inference/TensorApplier.cs"
"D:/Ana-Marija/Diplomski/ml-agents-release_19/com.unity.ml-agents/Runtime/Inference/TensorGenerator.cs"
"D:/Ana-Marija/Diplomski/ml-agents-release_19/com.unity.ml-agents/Runtime/Inference/TensorNames.cs"
"D:/Ana-Marija/Diplomski/ml-agents-release_19/com.unity.ml-agents/Runtime/Inference/TensorProxy.cs"
"D:/Ana-Marija/Diplomski/ml-agents-release_19/com.unity.ml-agents/Runtime/Inference/Utils/Multinomial.cs"
"D:/Ana-Marija/Diplomski/ml-agents-release_19/com.unity.ml-agents/Runtime/Inference/Utils/RandomNormal.cs"
"D:/Ana-Marija/Diplomski/ml-agents-release_19/com.unity.ml-agents/Runtime/InplaceArray.cs"
"D:/Ana-Marija/Diplomski/ml-agents-release_19/com.unity.ml-agents/Runtime/Integrations/Match3/AbstractBoard.cs"
"D:/Ana-Marija/Diplomski/ml-agents-release_19/com.unity.ml-agents/Runtime/Integrations/Match3/Match3Actuator.cs"
"D:/Ana-Marija/Diplomski/ml-agents-release_19/com.unity.ml-agents/Runtime/Integrations/Match3/Match3ActuatorComponent.cs"
"D:/Ana-Marija/Diplomski/ml-agents-release_19/com.unity.ml-agents/Runtime/Integrations/Match3/Match3Sensor.cs"
"D:/Ana-Marija/Diplomski/ml-agents-release_19/com.unity.ml-agents/Runtime/Integrations/Match3/Match3SensorComponent.cs"
"D:/Ana-Marija/Diplomski/ml-agents-release_19/com.unity.ml-agents/Runtime/Integrations/Match3/Move.cs"
"D:/Ana-Marija/Diplomski/ml-agents-release_19/com.unity.ml-agents/Runtime/MLAgentsSettings.cs"
"D:/Ana-Marija/Diplomski/ml-agents-release_19/com.unity.ml-agents/Runtime/MLAgentsSettingsManager.cs"
"D:/Ana-Marija/Diplomski/ml-agents-release_19/com.unity.ml-agents/Runtime/MultiAgentGroupIdCounter.cs"
"D:/Ana-Marija/Diplomski/ml-agents-release_19/com.unity.ml-agents/Runtime/Policies/BarracudaPolicy.cs"
"D:/Ana-Marija/Diplomski/ml-agents-release_19/com.unity.ml-agents/Runtime/Policies/BehaviorParameters.cs"
"D:/Ana-Marija/Diplomski/ml-agents-release_19/com.unity.ml-agents/Runtime/Policies/BrainParameters.cs"
"D:/Ana-Marija/Diplomski/ml-agents-release_19/com.unity.ml-agents/Runtime/Policies/HeuristicPolicy.cs"
"D:/Ana-Marija/Diplomski/ml-agents-release_19/com.unity.ml-agents/Runtime/Policies/IPolicy.cs"
"D:/Ana-Marija/Diplomski/ml-agents-release_19/com.unity.ml-agents/Runtime/Policies/RemotePolicy.cs"
"D:/Ana-Marija/Diplomski/ml-agents-release_19/com.unity.ml-agents/Runtime/RecursionChecker.cs"
"D:/Ana-Marija/Diplomski/ml-agents-release_19/com.unity.ml-agents/Runtime/Sampler.cs"
"D:/Ana-Marija/Diplomski/ml-agents-release_19/com.unity.ml-agents/Runtime/SensorHelper.cs"
"D:/Ana-Marija/Diplomski/ml-agents-release_19/com.unity.ml-agents/Runtime/Sensors/BoxOverlapChecker.cs"
"D:/Ana-Marija/Diplomski/ml-agents-release_19/com.unity.ml-agents/Runtime/Sensors/BufferSensor.cs"
"D:/Ana-Marija/Diplomski/ml-agents-release_19/com.unity.ml-agents/Runtime/Sensors/BufferSensorComponent.cs"
"D:/Ana-Marija/Diplomski/ml-agents-release_19/com.unity.ml-agents/Runtime/Sensors/CameraSensor.cs"
"D:/Ana-Marija/Diplomski/ml-agents-release_19/com.unity.ml-agents/Runtime/Sensors/CameraSensorComponent.cs"
"D:/Ana-Marija/Diplomski/ml-agents-release_19/com.unity.ml-agents/Runtime/Sensors/CompressionSpec.cs"
"D:/Ana-Marija/Diplomski/ml-agents-release_19/com.unity.ml-agents/Runtime/Sensors/GridSensorBase.cs"
"D:/Ana-Marija/Diplomski/ml-agents-release_19/com.unity.ml-agents/Runtime/Sensors/GridSensorComponent.cs"
"D:/Ana-Marija/Diplomski/ml-agents-release_19/com.unity.ml-agents/Runtime/Sensors/IBuiltInSensor.cs"
"D:/Ana-Marija/Diplomski/ml-agents-release_19/com.unity.ml-agents/Runtime/Sensors/IGridPerception.cs"
"D:/Ana-Marija/Diplomski/ml-agents-release_19/com.unity.ml-agents/Runtime/Sensors/ISensor.cs"
"D:/Ana-Marija/Diplomski/ml-agents-release_19/com.unity.ml-agents/Runtime/Sensors/ObservationSpec.cs"
"D:/Ana-Marija/Diplomski/ml-agents-release_19/com.unity.ml-agents/Runtime/Sensors/ObservationWriter.cs"
"D:/Ana-Marija/Diplomski/ml-agents-release_19/com.unity.ml-agents/Runtime/Sensors/OneHotGridSensor.cs"
"D:/Ana-Marija/Diplomski/ml-agents-release_19/com.unity.ml-agents/Runtime/Sensors/RayPerceptionSensor.cs"
"D:/Ana-Marija/Diplomski/ml-agents-release_19/com.unity.ml-agents/Runtime/Sensors/RayPerceptionSensorComponent2D.cs"
"D:/Ana-Marija/Diplomski/ml-agents-release_19/com.unity.ml-agents/Runtime/Sensors/RayPerceptionSensorComponent3D.cs"
"D:/Ana-Marija/Diplomski/ml-agents-release_19/com.unity.ml-agents/Runtime/Sensors/RayPerceptionSensorComponentBase.cs"
"D:/Ana-Marija/Diplomski/ml-agents-release_19/com.unity.ml-agents/Runtime/Sensors/Reflection/BoolReflectionSensor.cs"
"D:/Ana-Marija/Diplomski/ml-agents-release_19/com.unity.ml-agents/Runtime/Sensors/Reflection/EnumReflectionSensor.cs"
"D:/Ana-Marija/Diplomski/ml-agents-release_19/com.unity.ml-agents/Runtime/Sensors/Reflection/FloatReflectionSensor.cs"
"D:/Ana-Marija/Diplomski/ml-agents-release_19/com.unity.ml-agents/Runtime/Sensors/Reflection/IntReflectionSensor.cs"
"D:/Ana-Marija/Diplomski/ml-agents-release_19/com.unity.ml-agents/Runtime/Sensors/Reflection/ObservableAttribute.cs"
"D:/Ana-Marija/Diplomski/ml-agents-release_19/com.unity.ml-agents/Runtime/Sensors/Reflection/QuaternionReflectionSensor.cs"
"D:/Ana-Marija/Diplomski/ml-agents-release_19/com.unity.ml-agents/Runtime/Sensors/Reflection/ReflectionSensorBase.cs"
"D:/Ana-Marija/Diplomski/ml-agents-release_19/com.unity.ml-agents/Runtime/Sensors/Reflection/Vector2ReflectionSensor.cs"
"D:/Ana-Marija/Diplomski/ml-agents-release_19/com.unity.ml-agents/Runtime/Sensors/Reflection/Vector3ReflectionSensor.cs"
"D:/Ana-Marija/Diplomski/ml-agents-release_19/com.unity.ml-agents/Runtime/Sensors/Reflection/Vector4ReflectionSensor.cs"
"D:/Ana-Marija/Diplomski/ml-agents-release_19/com.unity.ml-agents/Runtime/Sensors/RenderTextureSensor.cs"
"D:/Ana-Marija/Diplomski/ml-agents-release_19/com.unity.ml-agents/Runtime/Sensors/RenderTextureSensorComponent.cs"
"D:/Ana-Marija/Diplomski/ml-agents-release_19/com.unity.ml-agents/Runtime/Sensors/SensorComponent.cs"
"D:/Ana-Marija/Diplomski/ml-agents-release_19/com.unity.ml-agents/Runtime/Sensors/SensorShapeValidator.cs"
"D:/Ana-Marija/Diplomski/ml-agents-release_19/com.unity.ml-agents/Runtime/Sensors/StackingSensor.cs"
"D:/Ana-Marija/Diplomski/ml-agents-release_19/com.unity.ml-agents/Runtime/Sensors/VectorSensor.cs"
"D:/Ana-Marija/Diplomski/ml-agents-release_19/com.unity.ml-agents/Runtime/Sensors/VectorSensorComponent.cs"
"D:/Ana-Marija/Diplomski/ml-agents-release_19/com.unity.ml-agents/Runtime/SideChannels/EngineConfigurationChannel.cs"
"D:/Ana-Marija/Diplomski/ml-agents-release_19/com.unity.ml-agents/Runtime/SideChannels/EnvironmentParametersChannel.cs"
"D:/Ana-Marija/Diplomski/ml-agents-release_19/com.unity.ml-agents/Runtime/SideChannels/FloatPropertiesChannel.cs"
"D:/Ana-Marija/Diplomski/ml-agents-release_19/com.unity.ml-agents/Runtime/SideChannels/IncomingMessage.cs"
"D:/Ana-Marija/Diplomski/ml-agents-release_19/com.unity.ml-agents/Runtime/SideChannels/OutgoingMessage.cs"
"D:/Ana-Marija/Diplomski/ml-agents-release_19/com.unity.ml-agents/Runtime/SideChannels/RawBytesChannel.cs"
"D:/Ana-Marija/Diplomski/ml-agents-release_19/com.unity.ml-agents/Runtime/SideChannels/SideChannel.cs"
"D:/Ana-Marija/Diplomski/ml-agents-release_19/com.unity.ml-agents/Runtime/SideChannels/SideChannelManager.cs"
"D:/Ana-Marija/Diplomski/ml-agents-release_19/com.unity.ml-agents/Runtime/SideChannels/StatsSideChannel.cs"
"D:/Ana-Marija/Diplomski/ml-agents-release_19/com.unity.ml-agents/Runtime/SideChannels/TrainingAnalyticsSideChannel.cs"
"D:/Ana-Marija/Diplomski/ml-agents-release_19/com.unity.ml-agents/Runtime/SimpleMultiAgentGroup.cs"
"D:/Ana-Marija/Diplomski/ml-agents-release_19/com.unity.ml-agents/Runtime/StatsRecorder.cs"
"D:/Ana-Marija/Diplomski/ml-agents-release_19/com.unity.ml-agents/Runtime/Timer.cs"
"D:/Ana-Marija/Diplomski/ml-agents-release_19/com.unity.ml-agents/Runtime/UnityAgentsException.cs"
"D:/Ana-Marija/Diplomski/ml-agents-release_19/com.unity.ml-agents/Runtime/Utilities.cs"
-langversion:9.0

/deterministic
/optimize+
/debug:portable
/nologo
/RuntimeMetadataVersion:v4.0.30319

/nowarn:0169
/nowarn:0649
/nowarn:1701
/nowarn:1702
/utf8output
/preferreduilang:en-US


/additionalfile:"Library/Bee/artifacts/500b0aE.dag/Unity.ML-Agents.AdditionalFile.txt"