Library\Bee\artifacts\mvdfrm\Unity.Services.Core.Internal.ref.dll_AECDEB654F450AF0.mvfrm
Library\Bee\artifacts\mvdfrm\Unity.Services.Core.ref.dll_ED84306DDDCAD591.mvfrm
Library\Bee\artifacts\mvdfrm\UnityEngine.UI.ref.dll_90EE99AF760AE606.mvfrm
Library\Bee\artifacts\mvdfrm\Unity.Burst.Cecil.dll_DFC190B25D957D05.mvfrm
Library\Bee\artifacts\mvdfrm\Unity.Burst.Cecil.Mdb.dll_24043BE5E6275982.mvfrm
Library\Bee\artifacts\mvdfrm\Unity.Burst.Cecil.Pdb.dll_3B56B45564DC5B05.mvfrm
Library\Bee\artifacts\mvdfrm\Unity.Burst.Cecil.Rocks.dll_30375A73BC4B9DC5.mvfrm
Library\Bee\artifacts\mvdfrm\Unity.Burst.Unsafe.dll_7642C8303C5860FE.mvfrm
Library\Bee\artifacts\mvdfrm\UnityEngine.AccessibilityModule.dll_ECB224DC4E8A6811.mvfrm
Library\Bee\artifacts\mvdfrm\UnityEngine.AIModule.dll_6849C403E09E8B99.mvfrm
Library\Bee\artifacts\mvdfrm\UnityEngine.AndroidJNIModule.dll_408A21F63FD21DD7.mvfrm
Library\Bee\artifacts\mvdfrm\UnityEngine.AnimationModule.dll_262B4BE32D415A77.mvfrm
Library\Bee\artifacts\mvdfrm\UnityEngine.ARModule.dll_21BC89073DBBEA62.mvfrm
Library\Bee\artifacts\mvdfrm\UnityEngine.AssetBundleModule.dll_960795EFF7167685.mvfrm
Library\Bee\artifacts\mvdfrm\UnityEngine.AudioModule.dll_5764DB3A2B88C5A9.mvfrm
Library\Bee\artifacts\mvdfrm\UnityEngine.ClothModule.dll_BE4D383505A5A48D.mvfrm
Library\Bee\artifacts\mvdfrm\UnityEngine.ClusterInputModule.dll_BC33219D4287BBE1.mvfrm
Library\Bee\artifacts\mvdfrm\UnityEngine.ClusterRendererModule.dll_A062D0724E02FB70.mvfrm
Library\Bee\artifacts\mvdfrm\UnityEngine.CoreModule.dll_F4C3610311F9B310.mvfrm
Library\Bee\artifacts\mvdfrm\UnityEngine.CrashReportingModule.dll_906AF9BF995AD0A8.mvfrm
Library\Bee\artifacts\mvdfrm\UnityEngine.DirectorModule.dll_7CE5FF16AC18452D.mvfrm
Library\Bee\artifacts\mvdfrm\UnityEngine.dll_512ABE51EF568985.mvfrm
Library\Bee\artifacts\mvdfrm\UnityEngine.DSPGraphModule.dll_823760801E79164E.mvfrm
Library\Bee\artifacts\mvdfrm\UnityEngine.GameCenterModule.dll_6AD76C1106130EC8.mvfrm
Library\Bee\artifacts\mvdfrm\UnityEngine.GIModule.dll_00860D117C4D73B3.mvfrm
Library\Bee\artifacts\mvdfrm\UnityEngine.GridModule.dll_D2347CF12A4E4907.mvfrm
Library\Bee\artifacts\mvdfrm\UnityEngine.HotReloadModule.dll_A77409E9087475F9.mvfrm
Library\Bee\artifacts\mvdfrm\UnityEngine.ImageConversionModule.dll_0C54CE22D027B364.mvfrm
Library\Bee\artifacts\mvdfrm\UnityEngine.IMGUIModule.dll_8FC47AA0F1BA598A.mvfrm
Library\Bee\artifacts\mvdfrm\UnityEngine.InputLegacyModule.dll_274CB10E8F082C76.mvfrm
Library\Bee\artifacts\mvdfrm\UnityEngine.InputModule.dll_BDDAA2EAA1C0EA4D.mvfrm
Library\Bee\artifacts\mvdfrm\UnityEngine.JSONSerializeModule.dll_4CC9AE184DC5C89B.mvfrm
Library\Bee\artifacts\mvdfrm\UnityEngine.LocalizationModule.dll_FA7FEBEFDA03AEDA.mvfrm
Library\Bee\artifacts\mvdfrm\UnityEngine.ParticleSystemModule.dll_E37D430C076C5C36.mvfrm
Library\Bee\artifacts\mvdfrm\UnityEngine.PerformanceReportingModule.dll_FBBFE7E5192857CF.mvfrm
Library\Bee\artifacts\mvdfrm\UnityEngine.Physics2DModule.dll_72D13BD3CE3E520C.mvfrm
Library\Bee\artifacts\mvdfrm\UnityEngine.PhysicsModule.dll_5BFC25C756FCAF9A.mvfrm
Library\Bee\artifacts\mvdfrm\UnityEngine.ProfilerModule.dll_AF2C384D4571CC3A.mvfrm
Library\Bee\artifacts\mvdfrm\UnityEngine.RuntimeInitializeOnLoadManagerInitializerModule.dll_B4C9602DBE99DAD5.mvfrm
Library\Bee\artifacts\mvdfrm\UnityEngine.ScreenCaptureModule.dll_66B15B9D6231F4FD.mvfrm
Library\Bee\artifacts\mvdfrm\UnityEngine.SharedInternalsModule.dll_90660CF84755AEB4.mvfrm
Library\Bee\artifacts\mvdfrm\UnityEngine.SpriteMaskModule.dll_5403DEA12782A442.mvfrm
Library\Bee\artifacts\mvdfrm\UnityEngine.SpriteShapeModule.dll_AF68C34AACB8AE8F.mvfrm
Library\Bee\artifacts\mvdfrm\UnityEngine.StreamingModule.dll_DAC039337CC911B5.mvfrm
Library\Bee\artifacts\mvdfrm\UnityEngine.SubstanceModule.dll_B76B4D7CC81C0FC3.mvfrm
Library\Bee\artifacts\mvdfrm\UnityEngine.SubsystemsModule.dll_BEB14502F5CA8C55.mvfrm
Library\Bee\artifacts\mvdfrm\UnityEngine.TerrainModule.dll_7642A1362CBAF888.mvfrm
Library\Bee\artifacts\mvdfrm\UnityEngine.TerrainPhysicsModule.dll_E3F7EBDF20AF56C3.mvfrm
Library\Bee\artifacts\mvdfrm\UnityEngine.TextCoreFontEngineModule.dll_409C41470A31528E.mvfrm
Library\Bee\artifacts\mvdfrm\UnityEngine.TextCoreTextEngineModule.dll_888477B899B50BAC.mvfrm
Library\Bee\artifacts\mvdfrm\UnityEngine.TextRenderingModule.dll_8FF0CDA8196974F2.mvfrm
Library\Bee\artifacts\mvdfrm\UnityEngine.TilemapModule.dll_153F08B74477D991.mvfrm
Library\Bee\artifacts\mvdfrm\UnityEngine.TLSModule.dll_DCF307A2614289EE.mvfrm
Library\Bee\artifacts\mvdfrm\UnityEngine.UIElementsModule.dll_C2EFA66AF8F6C84C.mvfrm
Library\Bee\artifacts\mvdfrm\UnityEngine.UIElementsNativeModule.dll_A140D560046FC923.mvfrm
Library\Bee\artifacts\mvdfrm\UnityEngine.UIModule.dll_63BD62313CE59145.mvfrm
Library\Bee\artifacts\mvdfrm\UnityEngine.UmbraModule.dll_D2398752B8AF711C.mvfrm
Library\Bee\artifacts\mvdfrm\UnityEngine.UNETModule.dll_8769A8EC5F08A889.mvfrm
Library\Bee\artifacts\mvdfrm\UnityEngine.UnityAnalyticsCommonModule.dll_96FEA5293310F62D.mvfrm
Library\Bee\artifacts\mvdfrm\UnityEngine.UnityAnalyticsModule.dll_031CB3D5B393AE32.mvfrm
Library\Bee\artifacts\mvdfrm\UnityEngine.UnityConnectModule.dll_29F630968B87E9C6.mvfrm
Library\Bee\artifacts\mvdfrm\UnityEngine.UnityCurlModule.dll_5947ED149D554C64.mvfrm
Library\Bee\artifacts\mvdfrm\UnityEngine.UnityTestProtocolModule.dll_749FDAF51A5B92D2.mvfrm
Library\Bee\artifacts\mvdfrm\UnityEngine.UnityWebRequestAssetBundleModule.dll_C922F6E7F15E2683.mvfrm
Library\Bee\artifacts\mvdfrm\UnityEngine.UnityWebRequestAudioModule.dll_73BC3BC39F932267.mvfrm
Library\Bee\artifacts\mvdfrm\UnityEngine.UnityWebRequestModule.dll_1DF3D5CCDB1C4DE3.mvfrm
Library\Bee\artifacts\mvdfrm\UnityEngine.UnityWebRequestTextureModule.dll_100A7E16D4EE1B1C.mvfrm
Library\Bee\artifacts\mvdfrm\UnityEngine.UnityWebRequestWWWModule.dll_5346BD148974C818.mvfrm
Library\Bee\artifacts\mvdfrm\UnityEngine.VehiclesModule.dll_F4A8F896264214C8.mvfrm
Library\Bee\artifacts\mvdfrm\UnityEngine.VFXModule.dll_5DD1A01137AFF35B.mvfrm
Library\Bee\artifacts\mvdfrm\UnityEngine.VideoModule.dll_7C6E5FA4EE1AE14E.mvfrm
Library\Bee\artifacts\mvdfrm\UnityEngine.VirtualTexturingModule.dll_C5CD89CEDD1E49AE.mvfrm
Library\Bee\artifacts\mvdfrm\UnityEngine.VRModule.dll_B68F88B6DEA016BD.mvfrm
Library\Bee\artifacts\mvdfrm\UnityEngine.WindModule.dll_6B123C2BA3303179.mvfrm
Library\Bee\artifacts\mvdfrm\UnityEngine.XRModule.dll_E94E4BBB67DA641B.mvfrm